# Blender MTL File: 'None'
# Material Count: 1

newmtl Material.001
Ns 225.000000
Ka 1.000000 1.000000 1.000000
Kd 0.800000 0.800000 0.800000
Ks 0.500000 0.500000 0.500000
Ke 0.0 0.0 0.0
Ni 1.450000
d 1.000000
illum 2
map_Kd models/textures/Airplane_smooth_DefaultMaterial_BaseMap.jpg
